[
    {
        "school":"Rutgers",
        "major":"Computers Science",
        "notes":"Beta Gamma Signma, High Honors",
        "range":"1998"
    },
    {
        "school":"Gloucester County College",
        "degree":"Associate of Science",
        "major":"Computer Science - Theoretical Track",
        "range":"1996 - 1998"
    }
]
